date,title,notice_for,notice
3-1-2017,REPORTING DAY (2:00pm - 5:00pm),1,REPORTING DAY (2:00pm - 5:00pm)
3-1-2017,NEW FORM 5 FORMS OUT (at school & online out since December 2016),5,NEW FORM 5 FORMS OUT (at school & online out since December 2016)
6-1-2017,STAFF MEETING (3:00pm - 3:30pm) & Formation Day (Staff),S,STAFF MEETING (3:00pm - 3:30pm) & Formation Day (Staff)
7-1-2017,REPORTING DAY (2:00 - 5:00pm) -Pre-F.1,"P1,P",REPORTING DAY (2:00 - 5:00pm) -Pre-F.1
8-1-2017,SCHOOL RE-OPENS  (2:00 - 5:00pm),5,SCHOOL RE-OPENS  (2:00 - 5:00pm)
12-1-2017,"REPORTING DAY (2:00 - 5:00pm) ""Mapinduzi day""","2, 3 , 4","REPORTING DAY (2:00 - 5:00pm) ""Mapinduzi day"""
15-01-2017,HOLY SPIRIT MASS & PRAYER FOR F.6 STUDENTS,"S,6",HOLY SPIRIT MASS & PRAYER FOR F.6 STUDENTS
21/01/2017,FORMATION DAY OF STUDENTS,"1,2,3,4,5,6",FORMATION DAY OF STUDENTS
23-1-2017,MOCK EXAMINATIONS BEGIN,6,MOCK EXAMINATIONS BEGIN
23/1/2017,SUBMISSION OF PAPERS,T,SUBMISSION OF PAPERS
27/1/2017,STAFF MEETING (3:00pm - 3:30pm),S,STAFF MEETING (3:00pm - 3:30pm)
28/1/2017,PARENTS MEETING F.1 (8:30am),1,PARENTS MEETING F.1 (8:30am)
1-2-2017,MOCK EXAMINATIONS  END,6,MOCK EXAMINATIONS  END
3-2-2017,1ST CONTINUOUS ASSESSMENT ,"1,2,3,4",1ST CONTINUOUS ASSESSMENT 
8-2-2017,1ST CONTINUOUS ASSESSMENT ,5,1ST CONTINUOUS ASSESSMENT 
21/2/2017,SUBMISSION OF MARKS  O' level & A' level,T,SUBMISSION OF MARKS  O' level & A' level
24/2/2017,STAFF MEETING (3:00pm - 3:30pm),S,STAFF MEETING (3:00pm - 3:30pm)
1/4/2017,GRADUATION OF F.6,6,GRADUATION OF F.6
1-3-2017,CANOSSA DAY (St. Magdalene Birthday),A,CANOSSA DAY (St. Magdalene Birthday)
1-3-2017,SUBMISSION OF QUESTION PAPERS (2ND CAT),T,SUBMISSION OF QUESTION PAPERS (2ND CAT)
4-3-2017,ENTRANCE EXAM  (New F.5  2017),P5,ENTRANCE EXAM  (New F.5  2017)
6-3-2017,2ND CONTINUOUS ASSESSMENT  (O'level),"1,2,3,4",2ND CONTINUOUS ASSESSMENT  (O'level)
8-3-2017,2ND CONTINUOUS ASSESSMENT  (A'level),"5,6",2ND CONTINUOUS ASSESSMENT  (A'level)
13/3/2017,JECAS EXAMINATION BEGIN (F.6),6,JECAS EXAMINATION BEGIN (F.6)
28/3/2017,SUBMISSION OF QESTION PAPERS (3RD CAT),T,SUBMISSION OF QESTION PAPERS (3RD CAT)
29/3/2017,JECAS EXAMINATION END,6,JECAS EXAMINATION END
31/3/2017,STAFF MEETING (3:00pm - 3:30pm),S,STAFF MEETING (3:00pm - 3:30pm)
1-4-2017,PRE-FORM FIVE BEGINS (Reporting day) 2:00pm-5:00pm,P5,PRE-FORM FIVE BEGINS (Reporting day) 2:00pm-5:00pm
5-4-2017,3rd  CONTINUOUS ASSESSMENT  (O'level),"1,2,3,4",3rd  CONTINUOUS ASSESSMENT  (O'level)
6-4-2017, 3rd CONTINUOUS ASSESSMENT (A'level),"5,6", 3rd CONTINUOUS ASSESSMENT (A'level)
10-4-2017,SUBMISSION OF MARKS/ ENTERING OF MARKS,T,SUBMISSION OF MARKS/ ENTERING OF MARKS
12-4-2017,SCHOOL CLOSES FOR MID-TERM (Easter Break) & Parents meeting ( 8:30am),"S,P",SCHOOL CLOSES FOR MID-TERM (Easter Break) & Parents meeting ( 8:30am)
22/4/2017,SCHOOL RE-OPENS (2:00pm - 5:00pm),"5,6",SCHOOL RE-OPENS (2:00pm - 5:00pm)
23/4/2017,SCHOOL RE-OPENS  (2:00 - 5:00pm),"1,2,3,4",SCHOOL RE-OPENS  (2:00 - 5:00pm)
24/4/2017,FINAL EXAMS ,5,FINAL EXAMS 
28/4/2017,STAFF MEETING (3:00pm - 3:30pm),S,STAFF MEETING (3:00pm - 3:30pm)
2-5-2017,NATIONAL EXAMS (EXPECTED) -F.6,6,NATIONAL EXAMS (EXPECTED) -F.6
4-5-2017,SUBMISSION OF QUESTION PAPERS,T,SUBMISSION OF QUESTION PAPERS
15/5/2017,TERMINAL EXAMS (O' level),"1,2,3,4",TERMINAL EXAMS (O' level)
15/5/2017,MOCK EXAMINATIONS BEGIN,4,MOCK EXAMINATIONS BEGIN
22/5/2017,F.5 TAHOSSA EXAMINATIONS BEGIN (Expected),5,F.5 TAHOSSA EXAMINATIONS BEGIN (Expected)
24/5/2017,PRE - F.5 EXAMS,P5,PRE - F.5 EXAMS
26/5/2017,TAHOSSA EXAMINATIONS END,5,TAHOSSA EXAMINATIONS END
26/5/2017,STAFF MEETING (3:00pm - 3:00pm),S,STAFF MEETING (3:00pm - 3:00pm)
29/5/2017,SUBMISSION OF MARKS,T,SUBMISSION OF MARKS
1-6-2017,SPORTS/TALENTS DAYS,S,SPORTS/TALENTS DAYS
3-6-2017,"SCHOOL CLOSES FOR HOLIDAY F.1,2,3,4,F.5 & Pre-F.5 & Parents meeting ","S,P","SCHOOL CLOSES FOR HOLIDAY F.1,2,3,4,F.5 & Pre-F.5 & Parents meeting "
30/6/2017,STAFF MEETING (3:00pm - 3:30pm),S,STAFF MEETING (3:00pm - 3:30pm)
1-7-2017,REPORTING DAY ,"1,3",REPORTING DAY 
2-7-2017,REPORTING DAY ,"5,6",REPORTING DAY 
21/8/2017,JECAS EXAMINATIONS BEGIN ,2,JECAS EXAMINATIONS BEGIN 
30/8/2017,JECAS EXAMINATIONS END,2,JECAS EXAMINATIONS END
11-9-2017,JECAS EXAMINATIONS BEGIN ,4,JECAS EXAMINATIONS BEGIN 
26/9/2017,JECAS EXAMS END,4,JECAS EXAMS END
,,,
,,,
,,,
,,,
,,,
,_________________________,,_________________________
,Headmistress Signature,,Headmistress Signature
